{
    "results": [
        {
            "popularity": 17020.709,
            "vote_count": 1227,
            "video": false,
            "poster_path": "/pFlaoHTZeyNkG83vxsAJiGzfSsa.jpg",
            "id": 436270,
            "adult": false,
            "backdrop_path": "/bQXAqRx2Fgc46uCVWgoPz5L5Dtr.jpg",
            "original_language": "en",
            "original_title": "Black Adam",
            "genre_ids": [
                28,
                14,
                878
            ],
            "title": "Black Adam",
            "vote_average": 6.8,
            "overview": "Nearly 5,000 years after he was bestowed with the almighty powers of the Egyptian gods—and imprisoned just as quickly—Black Adam is freed from his earthly tomb, ready to unleash his unique form of justice on the modern world.",
            "release_date": "2020-10-19"
        },
        {
            "popularity": 7.133,
            "vote_count": 71,
            "video": false,
            "poster_path": "\/gtIhBUq4lnJrZyjuAkshXxW6Txi.jpg",
            "id": 930921,
            "adult": false,
            "backdrop_path": "\/EIzE6nEbdC8qXHc8h7tDrqbLGQ.jpg",
            "original_language": "it",
            "original_title": "Strangeness",
            "genre_ids": [
                35,
                36,
                18
            ],
            "title": "Strageness",
            "vote_average": 7.12,
            "overview": "During a trip to Sicily in 1920, Luigi Pirandello meets two gravediggers-turned-playwrights rehearsing a play with their amateur dramatics. Pirandello takes an interest in the odd couple, having been suffering from writer's block while working on his eventual masterpiece, Six Characters in Search of an Author.",
            "release_date": "2020-10-27"
        },
        {
            "popularity": 3864.722,
            "vote_count": 910,
            "video": false,
            "poster_path": "\/sv1xJUazXeYqALzczSZ3O6nkH75.jpg",
            "id": 505642,
            "adult": false,
            "backdrop_path": "\/yYrvN5WFeGYjJnRzhY0QXuo4Isw.jpg",
            "original_language": "en",
            "original_title": "Black Panther: Wakanda Forever",
            "genre_ids": [
                28,
                12,
                878
            ],
            "title": "Black Panther: Wakanda Forever",
            "vote_average": 7.491,
            "overview": "Queen Ramonda, Shuri, M’Baku, Okoye and the Dora Milaje fight to protect their nation from intervening world powers in the wake of King T’Challa’s death. As the Wakandans strive to embrace their next chapter, the heroes must band together with the help of War Dog Nakia and Everett Ross and forge a new path for the kingdom of Wakanda.",
            "release_date": "2020-11-09"
        },
        {
            "popularity": 4.656,
            "vote_count": 16,
            "video": false,
            "poster_path": "\/aRzKglvZ5nfAdXT6p5oRuSi8TVj.jpg",
            "id": 693349,
            "adult": false,
            "backdrop_path": "\/yYrvN5WFeGYjJnRzhY0QXuo4Isw.jpg",
            "original_language": "it",
            "original_title": "Caravaggio's Shadow",
            "genre_ids": [
                36
            ],
            "title": "Caravaggio's Shadow",
            "vote_average": 6.281,
            "overview": "The Catholic Church secretly investigates Caravaggio as the Pope weighs whether to grant him clemency for killing a rival.",
            "release_date": "2020-11-03"
        },
        
        {
            "popularity": 13.242,
            "vote_count": 17,
            "video": false,
            "poster_path": "\/31MkuLvT1CfGn7RYorWrqEY7NEM.jpg",
            "id": 823999,
            "adult": false,
            "backdrop_path": "\/jYbABnXml6XyQ7cfhZFkMRZvMQz.jpg",
            "original_language": "it",
            "original_title": "Diabolik - Ginko all'attacco!",
            "genre_ids": [
                80,
                28
            ],
            "title": "Diabolik - Ginko all'attacco!",
            "vote_average": 5.588,
            "overview": "Diabolik nearly gets caught in Inspector Ginko's latest trap, leaving his partner in crime Eva Kant behind in the escape. Furious, Eva offers Ginko her help in capturing the King of Terror, but the former has to face the return of an old flame of his: Altea, Duchess of Vallenberg.",
            "release_date": "2020-11-17"
        },
        
        {
            "popularity": 757.96,
            "vote_count": 0,
            "video": false,
            "poster_path": "\/t6HIqrRAclMCA60NsSmeqe9RmNV.jpg",
            "id": 76600,
            "adult": false,
            "backdrop_path": "\/198vrF8k7mfQ4FjDJsBmdQcaiyq.jpg",
            "original_language": "en",
            "original_title": "Avatar: The Way of Water",
            "genre_ids": [
                878,
                28,
                12
            ],
            "title": "Avatar: The Way of Water",
            "vote_average": 0,
        
            "overview": "Set more than a decade after the events of the first film, learn the story of the Sully family (Jake, Neytiri, and their kids), the trouble that follows them, the lengths they go to keep each other safe, the battles they fight to stay alive, and the tragedies they endure.",
            "release_date": "2020-12-14"
        },
        
        {
            "popularity": 6.175,
            "vote_count": 1,
            "video": false,
            "poster_path": "\/uAr7JRVshRX5hskxteBB7a70XU9.jpg",
            "id": 936373,
            "adult": false,
            "backdrop_path": "\/k6S5yaiqndCTrNGBsjB9b8daoIb.jpg",
            "original_language": "it",
            "original_title": "Princess",
            "genre_ids": [
                18
            ],
            "title": "Princess",
            "vote_average": 0,
            
            "overview": "Princess is a young illegal immigrant from Nigeria who sells her body on the outskirts of a big city. Like an Amazon on the hunt, protected by her friends, she moves through a pinewood that stretches as far as the sea, an enchanted forest in which to find refuge, hide away from life and earn her daily bread. Every day, in order to survive, Princess has to steer clear of dangers and sentiments, follow the scent of money and dupe her clients. Her life is a succession of days that are always the same, one joins to another, without a break. Until one day, driven by an inner force to break the shackles of cynicism and exploitation, she quarrels with the friends with whom she shares the street and meets a man who wants to save her, but first she will have to save herself.",
            "release_date": "2022-11-17"
        },
        {
            "popularity": 6.175,
            "vote_count": 4,
            "video": false,
            "poster_path": "\/dBQuk2LkHjrDsSjueirPQg96GCc.jpg",
            "id": 791177,
            "adult": false,
            "backdrop_path": "\/atmII0hn3iQe3IWMBmIb3cc8EJZ.jpg",
            "original_language": "en",
            "original_title": "Bones and All",
            "genre_ids": [
                18,
                27,
                10749
            ],
            "title": "Bones and All",
            "vote_average": 7.6,
            
            "overview": "Abandoned by her father, a young woman named Maren embarks on a thousand-mile odyssey through the backroads of America where she meets Lee, a disenfranchised drifter. But despite their best efforts, all roads lead back to their terrifying pasts and to a final stand that will determine whether their love can survive their otherness.",
            "release_date": "2022-11-18"
        }
        
       
        
    ],
    "page": 1,
    "total_results": 655,
    "dates": {
        "maximum": "2020-05-26",
        "minimum": "2020-04-08"
    },
    "total_pages": 33
}
